Miniproject2 – Jean-LucCollette.github.io
…
return(Basketball_table)
}

test<- basketball_scrape("2000") # test data for the smaller function

Warning: Row 1 does not provide unique names. Consider running clean_names()
after row_to_names().

test

# A tibble: 326 × 29
   rk    school      g     w     l     w_l_percent srs   sos   w_2   l_2   w_3  
   <chr> <chr>       <chr> <chr> <chr> <chr>       <chr> <chr> <chr> <chr> <chr>
 1 1     Air Force   28    9     19    .321        -7.45 2.05  3     15    7    
 2 2     Akron       26    8     18    .308        -10.… -5.06 3     15    5    
 3 3     Alabama     29    16    13    .552        9.66  7.83  7     9     12   
 4 4     Alabama St… 27    14    13    .519        -8.49 -9.70 9     5     9    
 5 5     Alcorn Sta… 27    7     20    .259        -11.… -4.58 5     9     3    
 6 6     American    28    11    17    .393        -0.17 1.15  6     8     6    
 7 7     Appalachia… 28    13    15    .464        -6.09 -4.27 8     10    8    
 8 8     Arizona NC… 28    24    4     .857        20.50 8.28  17    1     14   
 9 9     Arizona St… 28    18    10    .643        9.24  6.99  11    7     13   
10 10    Arkansas N… 31    22    9     .710        17.72 8.30  10    6     12   
# ℹ 316 more rows
# ℹ 18 more variables: l_3 <chr>, w_4 <chr>, l_4 <chr>, tm <chr>, opp <chr>,
#   pace <chr>, o_rtg <chr>, f_tr <chr>, x3p_ar <chr>, ts_percent <chr>,
#   trb_percent <chr>, ast_percent <chr>, stl_percent <chr>, blk_percent <chr>,
#   e_fg_percent <chr>, tov_percent <chr>, orb_percent <chr>, ft_fga <chr>
…
# 2 - extract the table
title_temp <- html_nodes(nih, css = "table")
title_temp

{xml_nodeset (2)}
[1] <table class="sortable stats_table" id="conference-summary" data-cols-to- ...
[2] <table class="poll sortable stats_table" id="coaches-polls" data-cols-to- ...

# 3: html_table() - making a table and finding the right one
html_table(title_temp, header = TRUE, fill = TRUE)    # find the right table

[[1]]
# A tibble: 33 × 13
      Rk Conference       Schls     W     L `W-L%`   SRS   SOS    AP  NCAA    FF
   <int> <chr>            <int> <int> <int>  <dbl> <dbl> <dbl> <int> <int> <int>
 1     1 Pac-12 Conferen…    12   226   181  0.555 10.9   8.54     1     4     0
 2     2 Southeastern Co…    14   284   197  0.59  12.2   8.38     1     8     1
 3     3 Big Ten Confere…    14   284   199  0.588 13.0   9.15     1     6     1
 4     4 Big 12 Conferen…    14   295   184  0.616 15.1   9.12     1     8     0
 5     5 West Coast Conf…     9   157   141  0.527  1.8   1.35     1     2     0
 6     6 Big East Confer…    11   219   163  0.573 12.8   9.58     0     3     1
 7     7 Atlantic Coast …    15   298   218  0.578 11.4   8.31     0     5     1
 8     8 Sun Belt Confer…    14   230   231  0.499 -3.41 -2.42     0     1     0
 9     9 American Athlet…    14   251   210  0.544  3.68  2.28     0     2     0
10    10 Atlantic 10 Con…    15   285   215  0.57   4.52  2.55     0     2     0
# ℹ 23 more rows
# ℹ 2 more variables: `Regular Season Champ` <chr>, `Tournament Champ` <chr>

[[2]]
# A tibble: 57 × 23
   ``          ``    `Week Poll` `Week Poll` `Week Poll` `Week Poll` `Week Poll`
   <chr>       <chr> <chr>       <chr>       <chr>       <chr>       <chr>      
 1 ""          ""    "1"         "2"         "3"         "4"         "5"        
 2 "School"    "Con… "Pre"       "11/13"     "11/20"     "11/27"     "12/4"     
 3 "UConn"     "Big… "5"         "4"         "4"         "4"         "5"        
 4 "Purdue"    "Big… "2"         "2"         "2"         "1"         "4"        
 5 "Houston"   "Big… "6"         "6"         "6"         "5"         "2"        
 6 "Alabama"   "SEC" "24"        "22"        "15"        "20"        ""         
 7 "Tennessee" "SEC" "10"        "8"         "8"         "11"        "13"       
 8 "UNC"       "ACC" "21"        "18"        "14"        "16"        "10"       
 9 "Illinois"  "Big… ""          "23"        "22"        "24"        "18"       
10 "Iowa Stat… "Big… ""          ""          ""          ""          ""         
# ℹ 47 more rows
# ℹ 16 more variables: `Week Poll` <chr>, `Week Poll` <chr>, `Week Poll` <chr>,
#   `Week Poll` <chr>, `Week Poll` <chr>, `Week Poll` <chr>, `Week Poll` <chr>,
#   `Week Poll` <chr>, `Week Poll` <chr>, `Week Poll` <chr>, `Week Poll` <chr>,
#   `Week Poll` <chr>, `Week Poll` <chr>, `Week Poll` <chr>, `Week Poll` <chr>,
#   `Week Poll` <chr>

Basketball_table <- html_table(title_temp, header = TRUE, fill = TRUE)[[1]]
Basketball_table <- Basketball_table |>
  mutate(year = 2025)
Basketball_table

# A tibble: 33 × 14
      Rk Conference       Schls     W     L `W-L%`   SRS   SOS    AP  NCAA    FF
   <int> <chr>            <int> <int> <int>  <dbl> <dbl> <dbl> <int> <int> <int>
 1     1 Pac-12 Conferen…    12   226   181  0.555 10.9   8.54     1     4     0
 2     2 Southeastern Co…    14   284   197  0.59  12.2   8.38     1     8     1
 3     3 Big Ten Confere…    14   284   199  0.588 13.0   9.15     1     6     1
 4     4 Big 12 Conferen…    14   295   184  0.616 15.1   9.12     1     8     0
 5     5 West Coast Conf…     9   157   141  0.527  1.8   1.35     1     2     0
 6     6 Big East Confer…    11   219   163  0.573 12.8   9.58     0     3     1
 7     7 Atlantic Coast …    15   298   218  0.578 11.4   8.31     0     5     1
 8     8 Sun Belt Confer…    14   230   231  0.499 -3.41 -2.42     0     1     0
 9     9 American Athlet…    14   251   210  0.544  3.68  2.28     0     2     0
10    10 Atlantic 10 Con…    15   285   215  0.57   4.52  2.55     0     2     0
# ℹ 23 more rows
# ℹ 3 more variables: `Regular Season Champ` <chr>, `Tournament Champ` <chr>,
#   year <dbl>
…
  Basketball_table <- html_table(title_temp, header = TRUE, fill = TRUE)[[1]] # selecting the table we want
  Basketball_table <- Basketball_table |>
  mutate(year = year) # adding year as a column
  
Basketball_table

}

test3 <- basketball_scrape_c(2022)

 www.sports-reference.com                      

test3

# A tibble: 32 × 14
      Rk Conference       Schls     W     L `W-L%`   SRS   SOS    AP  NCAA    FF
   <int> <chr>            <int> <int> <int>  <dbl> <dbl> <dbl> <int> <int> <int>
 1     1 Pac-12 Conferen…    12   222   178  0.555  9.49  7.35     1     3     0
 2     2 Big 12 Conferen…    10   217   126  0.633 15.5   9.75     1     6     1
 3     3 Big Ten Confere…    14   271   193  0.584 11.9   8.6      1     9     0
 4     4 Southeastern Co…    14   283   196  0.591 12.3   8.45     0     6     0
 5     5 Conference USA      14   250   214  0.539 -0.35 -0.62     0     1     0
 6     6 Atlantic 10 Con…    14   243   208  0.539  3.46  2.3      0     2     0
 7     7 West Coast Conf…    10   183   141  0.565  5.14  3.26     0     3     0
 8     8 American Athlet…    11   194   151  0.562  7.32  4.95     0     2     0
 9     9 Southern Confer…    10   177   148  0.545 -1.71 -1.51     0     1     0
10    10 Missouri Valley…    10   170   153  0.526  2.66  1.53     0     1     0
# ℹ 22 more rows
# ℹ 3 more variables: `Regular Season Champ` <chr>, `Tournament Champ` <chr>,
#   year <dbl>
…
conference_stats_all_years

}

years <- c("2018","2019") # testing the code for multiple years
test4 <- conference_years(years) # testing the new function

 www.sports-reference.com                      

 www.sports-reference.com                      

test4

# A tibble: 64 × 14
      Rk Conference       Schls     W     L `W-L%`   SRS   SOS    AP  NCAA    FF
   <int> <chr>            <int> <int> <int>  <dbl> <dbl> <dbl> <int> <int> <int>
 1     1 Big East Confer…    10   213   128  0.625 14.2   9.28     0     6     1
 2     2 Pac-12 Conferen…    12   231   172  0.573  8.61  6.15     1     3     0
 3     3 Big 12 Conferen…    10   220   130  0.629 15.2   9.83     0     7     1
 4     4 Southeastern Co…    14   286   193  0.597 13     9.34     0     8     0
 5     5 Atlantic 10 Con…    14   232   224  0.509  2.26  1.99     0     3     0
 6     6 Atlantic Coast …    15   315   200  0.612 13.4   8.51     0     9     0
 7     7 Big Ten Confere…    14   289   189  0.605 13.0   7.99     0     4     1
 8     8 West Coast Conf…    10   180   159  0.531  1.83  1.43     0     1     0
 9     9 Conference USA      14   245   221  0.526  0.22  0.2      0     1     0
10    10 American Athlet…    12   224   168  0.571  5.58  3.41     0     3     0
# ℹ 54 more rows
# ℹ 3 more variables: `Regular Season Champ` <chr>, `Tournament Champ` <chr>,
#   year <chr>
